…
As a first step the data is extracted and read
into a dataframe. It is also converted into a
tibble to take advantage of the nicer and more informative print format.


```r
unzip('activity.zip',exdir = '.')
activity <- read.csv('activity.csv') %>%
  as_tibble()
print(activity)
```

```
## # A tibble: 17,568 x 3
##    steps date       interval
##    <int> <fct>         <int>
##  1    NA 2012-10-01        0
##  2    NA 2012-10-01        5
##  3    NA 2012-10-01       10
##  4    NA 2012-10-01       15
##  5    NA 2012-10-01       20
##  6    NA 2012-10-01       25
##  7    NA 2012-10-01       30
##  8    NA 2012-10-01       35
##  9    NA 2012-10-01       40
## 10    NA 2012-10-01       45
## # ... with 17,558 more rows
```
…
